2019 Population data — pop_data • covid19
…
    a tibble with 221 observations and 2 variables:

country: Country name

population: Population data for 2019

    Source

    World Bank

    Examples

pop_data

#> # A tibble: 221 x 2
#>    country              population
#>    <chr>                     <dbl>
#>  1 Aruba                    106314
#>  2 Afghanistan            38041754
#>  3 Angola                 31825295
#>  4 Albania                 2854191
#>  5 Andorra                   77142
#>  6 United Arab Emirates    9770529
#>  7 Argentina              44938712
#>  8 Armenia                 2957731
#>  9 American Samoa            55312
#> 10 Antigua and Barbuda       97118
#> # … with 211 more rows
…
